505 361
939 921
233 914
918 778
429 385
180 277
789 788
611 171
823 946
216 781
830 251
80 195
890 818
626 994
604 142
541 991
244 464
873 206
394 550
785 309
511 551
22 893
445 413
214 377
72 554
446 224
336 657
261 106
559 883
485 836
147 892
135 398
597 239
626 782
452 875
845 326
592 375
660 235
522 364
516 819
466 211
341 344
124 915
451 291
524 23
51 340
521 570
293 110
23 897
35 428
910 72
129 96
674 623
302 386
401 188
386 600
295 175
545 771
741 603
919 673
221 623
671 538
619 162
3 780
851 627
69 416
63 279
136 276
660 147
273 517
523 134
854 858
244 736
596 224
164 344
318 788
162 271
186 41
188 187
470 593
15 808
361 3
561 398
911 144
254 283
277 855
187 950
498 34
254 242
815 311
217 431
802 616
893 454
501 781
787 750
630 184
634 312
192 556
517 536
261 957
196 782
177 360
206 125
181 451
908 181
987 581
867 483
251 39
492 193
136 854
187 346
272 725
357 532
58 247
418 422
508 803
460 400
172 402
746 394
568 193
165 3
399 759
121 620
990 945
258 888
540 38
861 126
208 612
110 246
9 922
871 288
701 178
970 998
372 661
205 819
853 768
906 997
67 233
478 596
371 969
639 380
252 804
864 883
576 671
581 826
179 177
678 656
865 862
590 995
591 82
694 765
635 418
221 310
9 386
620 270
57 272
808 18
310 889
914 45
568 81
749 19
25 887
410 260
175 169
178 347
274 903
541 699
965 34
943 169
379 149
697 390
50 496
175 591
19 911
791 423
50 851
507 631
944 673
299 95
616 913
740 260
179 165
930 618
855 800
385 418
632 596
892 754
223 198
172 23
216 959
644 402
609 437
658 987
11 441
452 534
470 592
435 301
329 527
980 454
383 939
557 551
391 240
680 326
301 999
414 753
46 751
549 373
801 426
212 576
188 921
218 822
179 822
739 633
38 270
445 706
81 5
195 791
831 477
832 516
250 247
92 404
434 666
4 946
588 559
323 335
203 595
270 765
870 277
997 365
883 54
192 577
538 252
205 932
751 217
373 569
938 602
876 479
361 513
551 65
233 87
525 387
608 738
616 399
307 877
371 326
441 958
945 605
959 810
583 368
513 371
754 593
308 120
115 416
270 11
126 16
870 601
590 866
943 527
872 202
975 825
386 661
887 869
300 536
137 233
221 991
421 555
927 275
616 562
5 164
777 558
484 31
850 610
384 217
108 628
138 115
192 909
997 816
25 512
447 996
899 21
54 261
553 773
946 101
289 679
720 176
645 402
942 850
258 72
937 810
241 135
662 134
425 985
757 469
705 886
554 487
443 450
585 156
411 63
678 137
367 669
