757957 290891 509
873526 500026 525
519990 183229 470
647242 438985 509
447085 863483 525
104131 964798 525
474173 263041 449
87864 487236 449
348602 863478 525
566334 160942 470
272914 103660 443
277856 934072 525
871326 69980 525
360448 249250 441
260809 524790 470
183146 388662 443
463978 247075 449
789306 801793 468
672752 229276 509
105823 807447 509
232963 620111 470
976107 210085 525
264194 141645 443
629773 562675 509
238582 308451 407
500453 866329 525
934418 60076 525
393132 898250 525
603215 874726 525
829651 663061 504
547272 36390 470
826587 745935 468
175939 595541 470
101728 658983 509
980025 579389 525
13175 705907 509
719282 16419 509
524307 214826 470
705633 142037 509
653270 983172 525
361866 91848 443
949029 124394 525
342106 45735 443
441710 805413 509
15532 596968 470
465468 196908 449
698125 894325 525
799651 858089 525
556056 243484 470
555831 468863 470
258409 779733 509
877184 393516 525
832336 944852 525
168350 313732 443
443912 35176 449
777566 44737 509
229352 483747 449
23919 799910 509
741013 906254 525
669356 700887 442
89916 15567 351
87576 559055 470
171612 598029 470
837795 492123 509
661839 134776 509
434180 552264 470
664874 380727 509
697413 839269 525
497044 771784 509
577045 590951 434
993118 597760 525
437428 674304 509
273124 62986 443
314132 931047 525
467274 369744 449
102592 665375 509
825105 232297 509
809826 765214 468
194956 113902 383
365336 941485 525
1755 690855 509
888582 228611 525
762959 344932 509
486688 388135 449
369583 276451 441
521265 928871 525
697569 135466 509
162013 401031 443
676300 273222 509
914157 757725 525
597108 1276 470
383734 489469 449
832390 102736 509
862642 108082 525
40353 57774 340
120794 282303 443
362924 343062 441
882774 522735 525
981959 931220 507
556544 541102 452
987559 793385 525
893071 823061 525
526877 544303 408
998228 392687 525
212727 247427 443
141241 480475 449
426987 902848 525
198312 928716 525
919664 497654 525
114011 468038 449
844194 185316 525
701745 459105 509
867444 520682 525
373064 975977 525
659950 113496 509
44368 21455 324
380288 92970 443
880414 150789 525
297656 504480 449
593805 470412 470
27010 310030 443
924726 644150 525
568666 154227 470
650018 71641 509
763396 522206 509
935861 17025 525
233727 98279 443
113637 237886 443
760827 872386 525
99794 355829 443
620227 75649 470
248629 489735 449
625525 686859 509
206076 789776 509
677866 307390 509
841817 908318 445
601523 693176 509
320396 985902 525
498042 559126 470
493643 556901 470
906090 345057 525
696929 167782 509
617039 417720 470
771404 609192 509
309078 642038 509
392751 216303 443
467579 595464 470
714642 402348 509
22937 841634 525
75261 410425 449
654979 798570 504
490436 894125 525
465747 90026 449
349855 624394 470
907424 175527 525
588599 665792 509
847966 309841 525
131222 139006 344
983389 524504 525
531481 694595 509
235863 638074 509
477660 786362 509
537553 299262 470
730314 703180 504
275967 660998 509
444403 700479 509
687639 746976 504
173937 895589 525
451528 547815 470
713016 812529 468
331903 418972 449
300053 979150 525
657786 626192 509
512 632922 509
571474 182250 470
894179 549005 525
944133 978707 458
169085 755231 509
85734 207130 383
641339 914084 525
208052 965430 525
741014 932010 525
954274 332691 525
713229 61464 509
953078 690988 525
28456 490263 449
117053 249669 443
153444 671305 509
771140 373345 509
777552 126215 509
36760 52680 340
91542 486784 449
97212 511849 449
751094 512083 509
157815 404992 443
535594 621483 452
381512 240143 441
857447 775086 525
220884 908034 525
885196 115756 525
286723 268118 407
826551 328922 509
769209 309124 509
853798 982042 507
596505 292533 470
176679 956598 525
239777 639301 509
936004 827403 525
82384 192919 383
388887 180312 443
333468 506047 449
138626 682022 509
832965 151619 509
727046 113217 509
960375 954010 383
385207 575963 470
615599 73330 470
869723 484978 525
168913 378448 443
273865 765280 509
626556 227153 509
160673 810914 509
274755 156249 443
394961 894237 525
73073 510937 449
464384 443657 444
667612 677195 385
53064 434027 449
739396 91333 509
581718 179881 470
458532 357960 449
923701 647162 525
86149 166940 383
741123 397029 509
807798 792444 468
543000 553477 452
169712 514453 470
812885 671005 504
228865 263012 443
669831 248750 509
332045 696947 509
977479 101580 525
526026 217107 470
613880 446723 470
52026 594819 470
277606 578433 470
685033 122495 509
850853 400424 525
324612 59615 443
532194 374535 470
