108828 488575
253618 309032
241290 309349
443557 459463
307910 408896
325369 479002
178627 419705
157623 202764
61173 269097
475525 487405
332999 371239
341869 489435
447971 472611
107220 306131
214452 224527
275855 348250
207769 279745
464652 477771
195217 221604
106413 127961
307520 488418
292722 359705
296151 431542
15656 296426
406080 477110
400058 427478
117034 238752
168738 313205
481040 490576
415182 499383
69080 162126
418491 477305
111874 458434
89473 281657
182669 195439
235465 270998
231349 446661
491569 492513
14799 443084
254729 467834
482680 495528
94558 451217
236154 480046
155908 476916
302306 416832
380452 422231
35705 42500
372322 460753
334277 397725
112158 165031
491731 492267
111423 246839
188869 214319
417295 492640
238313 337050
62273 448024
367403 370463
8611 46616
287625 299100
381255 410441
455188 465643
426323 427099
476639 488733
394600 448251
173532 436475
363640 402029
188225 462535
452215 494247
375795 384709
187817 492563
181499 353777
261837 402752
348799 462579
260252 306312
370801 477438
348783 498605
152982 487602
26420 131899
463567 493031
350430 409581
440138 448787
267189 424309
183203 250347
125406 474355
140855 420813
331946 418212
339670 442870
67397 178218
266250 431418
214669 286842
96596 203571
52933 462186
416672 433313
277460 417044
24117 104559
366878 496065
234128 477943
439878 470089
120574 496243
464076 466186
221183 347373
429028 453445
413609 454344
312379 489368
208054 498248
476513 493803
405367 407134
129275 360062
498033 498305
163463 446484
457375 465085
484758 486169
351880 435156
173160 260107
330223 376730
121654 436319
305007 378876
497866 498027
240156 429124
85815 483562
361067 384808
172963 208173
380886 456416
339651 372637
430921 484813
143203 170598
190712 297257
109653 404778
168565 435006
276907 340904
423216 459426
132192 380634
131388 405636
298669 350059
378315 434484
239077 328122
118703 286827
473012 495071
257764 304236
474438 479486
128940 400023
22830 319823
216261 320988
113112 415877
489333 492153
139331 287259
490330 497374
144729 485010
295805 331645
119803 422347
130728 444437
21602 463495
275193 438615
387961 390254
83242 399189
4741 190943
312729 475345
199186 218588
134604 194828
12177 187564
195587 274859
364189 382182
315166 420370
394721 447714
252843 333183
350972 375938
186481 238510
410248 471780
273287 354780
497500 499414
205945 248606
58231 220181
435140 453405
315646 379223
457184 494744
98568 135169
99080 444422
368235 420061
247191 387657
105912 242637
81893 300064
394515 404438
439338 469217
187665 325683
262714 294746
386691 440430
284731 371051
44770 193970
413452 415417
328740 347232
225724 309567
55045 314813
18638 95799
363349 379194
270140 359820
459673 493430
480002 481192
305340 347974
363559 473756
161251 171110
459777 469178
114899 207494
271752 440961
220495 405022
101642 489123
72940 484892
435227 464160
444196 453153
56201 339730
293646 396929
72263 319435
242706 312375
456621 498245
22137 439726
66218 110180
319933 331689
353042 440874
250455 313547
108052 151262
74132 188518
223114 280868
351099 400238
104580 479781
351052 489590
124644 183081
379035 491656
36554 375622
313636 485616
5927 344461
220664 390707
287189 460830
460297 498186
321921 374863
98843 167248
472577 495458
52103 285050
273707 499908
458746 490280
248053 302060
343679 467308
3724 99585
326054 384381
348538 414012
436007 484163
440580 460614
12108 250296
412837 491822
451120 492843
9828 209627