1 10
100 200
201 210
900 1000
18 815
34 400
80 957
11 352
40 974
32 723
55 755
72 747
6 603
64 994
13 683
79 951
23 501
55 976
68 983
14 283
10 963
28 574
6 957
64 974
49 501
29 851
33 527
71 726
20 953
21 930
64 837
28 508
24 797
70 890
47 580
43 845
42 745
8 623
32 968
19 561
14 913
2 960
5 851
33 978
40 605
10 808
25 633
49 562
19 695
12 473
71 932
38 442
42 700
65 950
25 698
46 604
58 942
7 462
7 675
70 892
19 846
16 713
24 960
54 998
38 944
2 568
27 637
25 564
2 696
4 743
26 830
20 647
60 918
34 494
50 915
9 558
15 985
29 715
25 569
8 838
22 750
33 980
21 903
14 612
26 647
19 632
10 922
20 753
39 504
58 940
33 601
7 813
60 860
21 727
19 466
41 661
37 844
33 763
17 960
18 718
57 764
44 735
29 893
3 848
23 930
23 938
26 936
60 974
27 964
39 548
19 874
32 665
12 627
6 706
31 828
32 855
50 666
7 562
48 756
25 749
50 914
25 851
11 621
3 932
19 743
14 928
4 856
33 777
29 847
3 951
7 786
14 914
45 791
58 913
29 670
12 768
12 551
19 978
36 960
27 616
17 891
1 935
50 652
9 836
4 844
43 817
26 581
2 715
4 706
6 982
14 733
33 727
49 657
13 639
13 858
42 960
4 883
30 694
29 901
15 775
8 616
11 940
11 954
32 841
35 529
28 796
2 702
26 937
3 776
21 833
14 729
46 840
5 935
21 992
1038 2095
1230 7890
2408 5432
1468 6725
1250 3547
2305 8569
3150 7658
1824 5640
1095 7840
2579 9895
3002 8005
1145 8920
1560 6984
2148 8594
3280 9025
1412 8453
1678 5340
2789 7999
1240 7650
3470 8765
3280 8932
2024 7289
3456 9812
1248 9123
2856 7584
3269 9230
3045 6728
2458 7624
1357 8432
1289 7896
