1 10 20
100 200 125
201 210 89
900 1000 174
18 815 171
34 400 144
80 957 179
11 352 144
40 974 179
32 723 171
55 755 171
72 747 171
6 603 144
64 994 179
13 683 145
79 951 179
23 501 144
55 976 179
68 983 179
14 283 128
10 963 179
28 574 144
6 957 179
64 974 179
49 501 144
29 851 171
33 527 144
71 726 171
20 953 179
21 930 179
64 837 171
28 508 144
24 797 171
70 890 179
47 580 144
43 845 171
42 745 171
8 623 144
32 968 179
19 561 144
14 913 179
2 960 179
5 851 171
33 978 179
40 605 144
10 808 171
25 633 144
49 562 144
19 695 145
12 473 144
71 932 179
38 442 144
42 700 145
65 950 179
25 698 145
46 604 144
58 942 179
7 462 144
7 675 145
70 892 179
19 846 171
16 713 171
24 960 179
54 998 179
38 944 179
2 568 144
27 637 144
25 564 144
2 696 145
4 743 171
26 830 171
20 647 144
60 918 179
34 494 144
50 915 179
9 558 144
15 985 179
29 715 171
25 569 144
8 838 171
22 750 171
33 980 179
21 903 179
14 612 144
26 647 144
19 632 144
10 922 179
20 753 171
39 504 144
58 940 179
33 601 144
7 813 171
60 860 171
21 727 171
19 466 144
41 661 145
37 844 171
33 763 171
17 960 179
18 718 171
57 764 171
44 735 171
29 893 179
3 848 171
23 930 179
23 938 179
26 936 179
60 974 179
27 964 179
39 548 144
19 874 179
32 665 145
12 627 144
6 706 171
31 828 171
32 855 171
50 666 145
7 562 144
48 756 171
25 749 171
50 914 179
25 851 171
11 621 144
3 932 179
19 743 171
14 928 179
4 856 171
33 777 171
29 847 171
3 951 179
7 786 171
14 914 179
45 791 171
58 913 179
29 670 145
12 768 171
12 551 144
19 978 179
36 960 179
27 616 144
17 891 179
1 935 179
50 652 145
9 836 171
4 844 171
43 817 171
26 581 144
2 715 171
4 706 171
6 982 179
14 733 171
33 727 171
49 657 145
13 639 144
13 858 171
42 960 179
4 883 179
30 694 145
29 901 179
15 775 171
8 616 144
11 940 179
11 954 179
32 841 171
35 529 144
28 796 171
2 702 145
26 937 179
3 776 171
21 833 171
14 729 171
46 840 171
5 935 179
21 992 179
1038 2095 182
1230 7890 262
2408 5432 238
1468 6725 262
1250 3547 217
2305 8569 262
3150 7658 262
1824 5640 238
1095 7840 262
2579 9895 262
3002 8005 262
1145 8920 262
1560 6984 262
2148 8594 262
3280 9025 262
1412 8453 262
1678 5340 238
2789 7999 262
1240 7650 262
3470 8765 262
3280 8932 262
2024 7289 262
3456 9812 262
1248 9123 262
2856 7584 262
3269 9230 262
3045 6728 262
2458 7624 262
1357 8432 262
1289 7896 262
