318 127
136 409
22 258
312 108
364 179
95 478
252 115
68 445
239 402
92 397
45 149
127 418
338 108
350 415
318 120
206 95
201 82
216 499
45 195
452 396
65 456
408 140
190 17
63 225
135 111
143 363
44 316
137 163
336 249
350 339
420 81
239 156
141 268
275 287
454 340
235 162
455 307
349 23
242 349
460 421
320 290
358 94
338 182
445 213
406 48
50 185
78 38
413 444
150 305
12 430
403 61
353 68
205 368
155 470
107 310
376 314
385 220
209 385
442 455
338 399
157 172
255 22
379 13
281 163
310 325
275 161
500 125
374 189
437 32
489 132
86 38
400 359
468 123
19 325
43 444
391 475
387 143
232 411
164 399
246 140
43 234
295 151
410 366
467 483
432 156
167 356
279 230
226 336
181 296
324 353
346 421
228 24
18 190
7 62
189 355
201 339
335 273
108 248
130 175
318 255
335 55
229 489
408 309
119 172
482 172
458 386
300 234
436 474
318 408
60 115
188 134
27 384
218 312
499 383
421 276
203 16
493 254
185 2
406 485
194 228
419 196
120 203
147 409
389 308
107 386
299 249
296 429
48 307
457 209
281 231
463 441
50 7
210 255
49 350
221 143
157 134
468 484
55 184
299 24
172 365
331 378
148 289
330 236
107 211
32 173
108 159
431 140
30 485
149 315
422 189
428 357
7 48
251 107
360 45
379 345
1 137
438 296
8 480
47 324
443 172
12 491
435 103
287 202
432 458
157 99
485 323
155 491
368 8
361 325
154 478
145 63
266 500
476 399
413 114
254 490
134 51
170 208
86 91
101 63
156 354
159 263
195 120
121 151
9 414
500 139
299 60
383 58
238 321
343 203
440 68
369 296
402 50
479 138
298 156
23 344
211 389
198 421
29 294
126 260
454 59
185 428
297 99
201 181
108 233
380 105
368 35
27 81
350 9
495 152
229 413
276 76
219 365
80 50
461 302
342 283
497 135
337 218
238 407
270 78
345 415
443 374
174 400
235 119
308 94
383 213
24 340
153 456
280 7
348 307
73 258
26 229
210 437
35 89
119 470
43 307
318 457
262 333
470 443
424 425
462 384
315 112
80 63
67 300
379 101
479 475
226 237
48 43
1 1
411 154
130 390
